slave.vcd
$date
	Sat Jul 18 21:22:21 2026
$end
$version
	Icarus Verilog
$end
$timescale
	1ps
$end
$scope module slave_tb $end
$var wire 1 ! HResp $end
$var wire 1 " HReadyOut $end
$var wire 32 # HRdata [31:0] $end
$var parameter 32 $ AddressWidth $end
$var parameter 3 % BYTE $end
$var parameter 32 & BaseAddr $end
$var parameter 32 ' Burst $end
$var parameter 32 ( DataWidth $end
$var parameter 32 ) Depth $end
$var parameter 3 * HALFWORD $end
$var parameter 2 + NONSEQ $end
$var parameter 32 , Prot $end
$var parameter 2 - SEQ $end
$var parameter 32 . Size $end
$var parameter 32 / Transfer $end
$var parameter 3 0 WORD $end
$var reg 32 1 HAddr [31:0] $end
$var reg 3 2 HBurst [2:0] $end
$var reg 1 3 HClk $end
$var reg 1 4 HMastlock $end
$var reg 4 5 HProt [3:0] $end
$var reg 1 6 HReady $end
$var reg 1 7 HResetn $end
$var reg 1 8 HSel $end
$var reg 3 9 HSize [2:0] $end
$var reg 2 : HTrans [1:0] $end
$var reg 32 ; HWdata [31:0] $end
$var reg 1 < HWrite $end
$var integer 32 = fail_count [31:0] $end
$var integer 32 > mem_head [31:0] $end
$var integer 32 ? mem_tail [31:0] $end
$var integer 32 @ pass_count [31:0] $end
$scope module S_DUT $end
$var wire 32 A HAddr [31:0] $end
$var wire 3 B HBurst [2:0] $end
$var wire 1 3 HClk $end
$var wire 1 4 HMastlock $end
$var wire 4 C HProt [3:0] $end
$var wire 32 D HRdata [31:0] $end
$var wire 1 6 HReady $end
$var wire 1 " HReadyOut $end
$var wire 1 7 HResetn $end
$var wire 1 ! HResp $end
$var wire 1 8 HSel $end
$var wire 3 E HSize [2:0] $end
$var wire 2 F HTrans [1:0] $end
$var wire 32 G HWdata [31:0] $end
$var wire 1 < HWrite $end
$var wire 1 H addr_in_range $end
$var wire 1 I misaligned $end
$var wire 1 J valid_transfer $end
$var wire 32 K offset [31:0] $end
$var parameter 32 L AddressWidth $end
$var parameter 3 M BYTE $end
$var parameter 3 N BYTE_1024 $end
$var parameter 3 O BYTE_256 $end
$var parameter 3 P BYTE_512 $end
$var parameter 32 Q BaseAddr $end
$var parameter 32 R Burst $end
$var parameter 32 S Byte_width $end
$var parameter 3 T DOUBLEWORD $end
$var parameter 32 U DataWidth $end
$var parameter 32 V Depth $end
$var parameter 3 W HALFWORD $end
$var parameter 2 X IDLE $end
$var parameter 2 Y NONSEQ $end
$var parameter 32 Z Prot $end
$var parameter 3 [ QUADWORD $end
$var parameter 2 \ RESP_ERR2 $end
$var parameter 2 ] RESP_IDLE $end
$var parameter 2 ^ RESP_READWAIT $end
$var parameter 2 _ SEQ $end
$var parameter 32 ` Size $end
$var parameter 32 a Transfer $end
$var parameter 3 b WORD $end
$var reg 8 c DataSize [7:0] $end
$var reg 32 d HAddrL [31:0] $end
$var reg 3 e HBurstL [2:0] $end
$var reg 1 f HMastlockL $end
$var reg 4 g HProtL [3:0] $end
$var reg 32 h HRdata_reg [31:0] $end
$var reg 1 i HReadyL $end
$var reg 1 j HReadyOut_reg $end
$var reg 1 k HResp_reg $end
$var reg 1 l HSelL $end
$var reg 3 m HSizeL [2:0] $end
$var reg 2 n HTransL [1:0] $end
$var reg 1 o HWriteL $end
$var reg 2 p next_state [1:0] $end
$var reg 2 q state [1:0] $end
$upscope $end
$scope task checkRead $end
$var reg 32 r DataRead [31:0] $end
$var reg 32 s DataToCompare [31:0] $end
$upscope $end
$scope task checkWrite $end
$var reg 8 t DataInMem [7:0] $end
$upscope $end
$scope task clear_mem $end
$var integer 32 u i [31:0] $end
$upscope $end
$scope task push_ref $end
$var reg 8 v write_data [7:0] $end
$upscope $end
$upscope $end
$enddefinitions $end
$comment Show the parameter values. $end
$dumpall
b10 b
b100 a
b1000 `
b11 _
b1 ^
b0 ]
b10 \
b100 [
b100 Z
b10 Y
b0 X
b1 W
b10000000000 V
b100000 U
b11 T
b1000 S
b1000 R
b0 Q
b110 P
b101 O
b111 N
b0 M
b100000 L
b10 0
b100 /
b1000 .
b11 -
b100 ,
b10 +
b1 *
b10000000000 )
b100000 (
b1000 '
b0 &
b0 %
b100000 $
$end
#0
$dumpvars
bx v
bx u
bx t
bx s
bx r
b0 q
b0 p
0o
b0 n
b0 m
0l
0k
1j
1i
b0 h
b1100 g
0f
b0 e
b0 d
b1 c
b0 K
0J
0I
1H
bx G
b10 F
b0 E
b0 D
b1100 C
b0 B
bx A
b0 @
b0 ?
b0 >
b0 =
x<
bx ;
b10 :
b0 9
18
07
16
b1100 5
04
03
b0 2
bx 1
b0 #
1"
0!
$end
#5000
13
#10000
03
#15000
13
b1 @
#20000
03
#25000
13
#30000
03
#35000
13
#40000
03
#45000
13
#50000
03
#55000
13
#60000
03
#65000
13
#70000
03
#75000
13
#80000
03
#85000
13
#90000
03
#95000
13
#100000
03
#105000
13
#110000
03
#115000
13
#120000
03
#125000
13
#130000
03
#135000
13
#140000
03
#145000
13
#150000
03
#155000
13
#160000
03
#165000
13
#170000
03
#175000
13
#180000
03
#185000
13
#190000
03
#195000
13
#200000
03
#205000
13
#210000
03
#215000
13
#220000
17
03
#225000
1J
xH
xo
b10 n
bx K
bx d
1l
13
#230000
03
#235000
13
#240000
1<
b1 ?
b1111000 v
b1111000 ;
b1111000 G
b0 1
b0 A
03
#245000
1H
1o
b0 K
b0 d
13
#250000
03
#255000
13
#260000
03
#265000
13
#270000
03
#275000
13
#280000
03
b1 >
b10 @
b1111000 t
#285000
13
#290000
03
#295000
13
#300000
03
#305000
13
#310000
03
#315000
13
#320000
03
#325000
13
#330000
03
#335000
13
#340000
03
#345000
13
#350000
03
#355000
13
#360000
03
#365000
13
#370000
03
#375000
13
#380000
03
#385000
13
#390000
03
#395000
13
#400000
03
#405000
13
#410000
03
#415000
13
#420000
03
#425000
13
#430000
03
#435000
13
#440000
03
#445000
13
#450000
03
#455000
13
#460000
03
#465000
13
#470000
03
#475000
13
#480000
03
#485000
13
#490000
03
#495000
13
#500000
0<
03
#505000
b1 p
0o
13
#510000
03
#515000
b0 p
b1 q
0"
0j
13
#520000
03
#525000
b1 p
b1111000 #
b1111000 D
b1111000 h
1"
1j
b0 q
13
#530000
03
#535000
b0 p
b1 q
0"
0j
13
#540000
03
b11 @
b1111000 s
b1111000 r
#545000
b1 p
1"
1j
b0 q
13
#550000
03
#555000
b100 c
b0 p
1o
b10 m
b1 q
0"
0j
13
1<
b10 9
b10 E
#560000
b10010001101000001001000110100 ;
b10010001101000001001000110100 G
b110100111110110101111000111 1
b110100111110110101111000111 A
03
#565000
b10 p
0H
1I
bx01111000 #
bx01111000 D
bx01111000 h
1"
1j
b0 q
b110100111110110101111000111 K
b110100111110110101111000111 d
13
#570000
03
#575000
b0 p
b10 q
0"
0j
1!
1k
13
#576000
b100 @
#580000
03
#585000
b10 p
1"
1j
b0 q
13
#586000
b110 @
#590000
03
#595000
b0 p
b10 q
0"
0j
13
#600000
03
#605000
b10 p
1"
1j
b0 q
13
#610000
03
#615000
b0 p
b10 q
0"
0j
13
#620000
03
#625000
b10 p
1"
1j
b0 q
13
#630000
03
#635000
b0 p
b10 q
0"
0j
13
#640000
03
#645000
b10 p
1"
1j
b0 q
13
#650000
03
#655000
b0 p
b10 q
0"
0j
13
#660000
03
#665000
b10 p
1"
1j
b0 q
13
#670000
03
#675000
b0 p
b10 q
0"
0j
13
#680000
03
#685000
b10 p
1"
1j
b0 q
13
#686000
b10000000000 u
b0 ?
b0 >
b1 9
b1 E
#690000
b10 1
b10 A
03
#695000
0I
b10 c
1H
b0 p
b1 m
b10 K
b10 d
b10 q
0"
0j
13
#700000
b10 ?
b10010 v
b10010001101000000000000000000 ;
b10010001101000000000000000000 G
03
#705000
1"
1j
b0 q
13
#710000
03
#715000
0!
0k
13
#720000
03
#725000
13
#730000
03
#735000
13
#740000
03
#745000
13
#750000
03
#755000
13
#760000
03
#765000
13
#770000
03
#775000
13
#780000
03
#785000
13
#790000
03
#795000
13
#800000
b100 1
b100 A
03
#805000
b100 K
b100 d
13
#810000
b100 ?
b1010110 v
b101011001111000 ;
b101011001111000 G
03
#815000
13
#820000
03
#825000
13
#830000
03
#835000
13
#840000
03
#845000
13
#850000
03
#855000
13
#860000
03
#865000
13
#870000
03
#875000
13
#880000
03
#885000
13
#890000
03
#895000
13
#900000
03
#905000
13
#910000
b110 1
b110 A
03
#915000
b110 K
b110 d
13
#920000
b110 ?
b100010 v
b100010001100010000000000000000 ;
b100010001100010000000000000000 G
03
